module xorm.io/xorm

go 1.11

require (
	github.com/denisenkom/go-mssqldb v0.0.0-20200428022330-06a60b6afbbc
	github.com/go-sql-driver/mysql v1.5.0
	github.com/lib/pq v1.7.0
	github.com/mattn/go-sqlite3 v1.14.0
	github.com/stretchr/testify v1.4.0
	github.com/syndtr/goleveldb v1.0.0
	github.com/ziutek/mymysql v1.5.4
	xorm.io/builder v0.3.8
)
